IntRoduction
…
filter(): pick observations by their values

select(): pick variables by their names

arrange(): reorder the rows

mutate(): create new variables with functions of existing variables

summarise(): collapse many values down to a single summary

Let’s look at the TB data again

who_dat

# A tibble: 6,382 × 8
   country     iso2  iso3   year diag         gender agegroup  value
   <chr>       <chr> <chr> <int> <chr>        <chr>  <chr>     <int>
 1 Afghanistan AF    AFG    1997 sputum smear m      0-14 yrs      0
 2 Afghanistan AF    AFG    1997 sputum smear m      15-24 yrs    10
 3 Afghanistan AF    AFG    1998 sputum smear m      0-14 yrs     30
 4 Afghanistan AF    AFG    1998 sputum smear m      15-24 yrs   129
 5 Afghanistan AF    AFG    1999 sputum smear m      0-14 yrs      8
 6 Afghanistan AF    AFG    1999 sputum smear m      15-24 yrs    55
 7 Afghanistan AF    AFG    2000 sputum smear m      0-14 yrs     52
 8 Afghanistan AF    AFG    2000 sputum smear m      15-24 yrs   228
 9 Afghanistan AF    AFG    2001 sputum smear m      0-14 yrs    129
10 Afghanistan AF    AFG    2001 sputum smear m      15-24 yrs   379
# … with 6,372 more rows
…
head(filter(who_dat, country == "Brazil"), 1)

# A tibble: 1 × 8
  country iso2  iso3   year diag         gender agegroup value
  <chr>   <chr> <chr> <int> <chr>        <chr>  <chr>    <int>
1 Brazil  BR    BRA    1999 sputum smear m      0-14 yrs   301

😩

filter(): pick observations by their values

who_dat %>% 
  filter(country == "Brazil")

# A tibble: 28 × 8
   country iso2  iso3   year diag         gender agegroup  value
   <chr>   <chr> <chr> <int> <chr>        <chr>  <chr>     <int>
 1 Brazil  BR    BRA    1999 sputum smear m      0-14 yrs    301
 2 Brazil  BR    BRA    1999 sputum smear m      15-24 yrs  3662
 3 Brazil  BR    BRA    2000 sputum smear m      0-14 yrs   1894
 4 Brazil  BR    BRA    2000 sputum smear m      15-24 yrs  7268
 5 Brazil  BR    BRA    2001 sputum smear m      0-14 yrs    468
 6 Brazil  BR    BRA    2001 sputum smear m      15-24 yrs  4455
 7 Brazil  BR    BRA    2002 sputum smear m      0-14 yrs    344
 8 Brazil  BR    BRA    2002 sputum smear m      15-24 yrs  4695
 9 Brazil  BR    BRA    2003 sputum smear m      0-14 yrs    382
10 Brazil  BR    BRA    2003 sputum smear m      15-24 yrs  4485
# … with 18 more rows
…
select(): pick variables by their names

who_dat %>% 
  filter(country == "Brazil") %>% 
  select(country, year, diag, gender, agegroup, value)

# A tibble: 28 × 6
   country  year diag         gender agegroup  value
   <chr>   <int> <chr>        <chr>  <chr>     <int>
 1 Brazil   1999 sputum smear m      0-14 yrs    301
 2 Brazil   1999 sputum smear m      15-24 yrs  3662
 3 Brazil   2000 sputum smear m      0-14 yrs   1894
 4 Brazil   2000 sputum smear m      15-24 yrs  7268
 5 Brazil   2001 sputum smear m      0-14 yrs    468
 6 Brazil   2001 sputum smear m      15-24 yrs  4455
 7 Brazil   2002 sputum smear m      0-14 yrs    344
 8 Brazil   2002 sputum smear m      15-24 yrs  4695
 9 Brazil   2003 sputum smear m      0-14 yrs    382
10 Brazil   2003 sputum smear m      15-24 yrs  4485
# … with 18 more rows

# You could also use select(-c(iso2, iso3))

Useful “helpers” with select: starts_with(), contains()

arrange(): reorder the rows

who_dat %>% 
  filter(country == "Brazil") %>% 
  select(-c(iso2, iso3)) %>% 
  arrange(value) 

# A tibble: 28 × 6
   country  year diag         gender agegroup value
   <chr>   <int> <chr>        <chr>  <chr>    <int>
 1 Brazil   2012 sputum smear m      0-14 yrs   277
 2 Brazil   2008 sputum smear m      0-14 yrs   298
 3 Brazil   2010 sputum smear m      0-14 yrs   298
 4 Brazil   1999 sputum smear m      0-14 yrs   301
 5 Brazil   2005 sputum smear m      0-14 yrs   317
 6 Brazil   2009 sputum smear m      0-14 yrs   328
 7 Brazil   2011 sputum smear m      0-14 yrs   336
 8 Brazil   2004 sputum smear m      0-14 yrs   337
 9 Brazil   2006 sputum smear m      0-14 yrs   343
10 Brazil   2002 sputum smear m      0-14 yrs   344
# … with 18 more rows

arrange(): reorder the rows

who_dat %>% 
  filter(country == "Brazil") %>% 
  select(-c(iso2, iso3)) %>% 
  arrange(desc(value)) 

# A tibble: 28 × 6
   country  year diag         gender agegroup  value
   <chr>   <int> <chr>        <chr>  <chr>     <int>
 1 Brazil   2000 sputum smear m      15-24 yrs  7268
 2 Brazil   2005 sputum smear m      15-24 yrs  5074
 3 Brazil   2004 sputum smear m      15-24 yrs  5041
 4 Brazil   2012 sputum smear m      15-24 yrs  5027
 5 Brazil   2011 sputum smear m      15-24 yrs  4877
 6 Brazil   2006 sputum smear m      15-24 yrs  4783
 7 Brazil   2002 sputum smear m      15-24 yrs  4695
 8 Brazil   2009 sputum smear m      15-24 yrs  4621
 9 Brazil   2003 sputum smear m      15-24 yrs  4485
10 Brazil   2001 sputum smear m      15-24 yrs  4455
# … with 18 more rows

mutate(): create new variables

who_dat %>% 
  filter(country == "Brazil") %>% 
  select(-c(iso2, iso3)) %>% 
  mutate(total_n_cases = sum(value))

# A tibble: 28 × 7
   country  year diag         gender agegroup  value total_n_cases
   <chr>   <int> <chr>        <chr>  <chr>     <int>         <int>
 1 Brazil   1999 sputum smear m      0-14 yrs    301         73522
 2 Brazil   1999 sputum smear m      15-24 yrs  3662         73522
 3 Brazil   2000 sputum smear m      0-14 yrs   1894         73522
 4 Brazil   2000 sputum smear m      15-24 yrs  7268         73522
 5 Brazil   2001 sputum smear m      0-14 yrs    468         73522
 6 Brazil   2001 sputum smear m      15-24 yrs  4455         73522
 7 Brazil   2002 sputum smear m      0-14 yrs    344         73522
 8 Brazil   2002 sputum smear m      15-24 yrs  4695         73522
 9 Brazil   2003 sputum smear m      0-14 yrs    382         73522
10 Brazil   2003 sputum smear m      15-24 yrs  4485         73522
# … with 18 more rows

mutate(): create new variables

who_dat %>% 
  filter(country == "Brazil") %>% 
  select(-c(iso2, iso3)) %>% 
  mutate(mean_n_cases = mean(value))

# A tibble: 28 × 7
   country  year diag         gender agegroup  value mean_n_cases
   <chr>   <int> <chr>        <chr>  <chr>     <int>        <dbl>
 1 Brazil   1999 sputum smear m      0-14 yrs    301        2626.
 2 Brazil   1999 sputum smear m      15-24 yrs  3662        2626.
 3 Brazil   2000 sputum smear m      0-14 yrs   1894        2626.
 4 Brazil   2000 sputum smear m      15-24 yrs  7268        2626.
 5 Brazil   2001 sputum smear m      0-14 yrs    468        2626.
 6 Brazil   2001 sputum smear m      15-24 yrs  4455        2626.
 7 Brazil   2002 sputum smear m      0-14 yrs    344        2626.
 8 Brazil   2002 sputum smear m      15-24 yrs  4695        2626.
 9 Brazil   2003 sputum smear m      0-14 yrs    382        2626.
10 Brazil   2003 sputum smear m      15-24 yrs  4485        2626.
# … with 18 more rows
…
Repeat dplyr basics

Join datasets

Create first graph using ggplot2

Learn about Tidy Data

We want to look at the TB data in relation to the population. The Gapminder dataset provides the data we need.

pop <- read_rds("data/gapminder_data.rds")

pop

# A tibble: 1,704 × 6
   country     continent  year lifeExp      pop gdpPercap
   <fct>       <fct>     <int>   <dbl>    <int>     <dbl>
 1 Afghanistan Asia       1952    28.8  8425333      779.
 2 Afghanistan Asia       1957    30.3  9240934      821.
 3 Afghanistan Asia       1962    32.0 10267083      853.
 4 Afghanistan Asia       1967    34.0 11537966      836.
 5 Afghanistan Asia       1972    36.1 13079460      740.
 6 Afghanistan Asia       1977    38.4 14880372      786.
 7 Afghanistan Asia       1982    39.9 12881816      978.
 8 Afghanistan Asia       1987    40.8 13867957      852.
 9 Afghanistan Asia       1992    41.7 16317921      649.
10 Afghanistan Asia       1997    41.8 22227415      635.
# … with 1,694 more rows

We will only look at the most recent year, which is 2007.

pop07 <- pop %>% 
  filter(year == 2007)

pop07

# A tibble: 142 × 6
   country     continent  year lifeExp       pop gdpPercap
   <fct>       <fct>     <int>   <dbl>     <int>     <dbl>
 1 Afghanistan Asia       2007    43.8  31889923      975.
 2 Albania     Europe     2007    76.4   3600523     5937.
 3 Algeria     Africa     2007    72.3  33333216     6223.
 4 Angola      Africa     2007    42.7  12420476     4797.
 5 Argentina   Americas   2007    75.3  40301927    12779.
 6 Australia   Oceania    2007    81.2  20434176    34435.
 7 Austria     Europe     2007    79.8   8199783    36126.
 8 Bahrain     Asia       2007    75.6    708573    29796.
 9 Bangladesh  Asia       2007    64.1 150448339     1391.
10 Belgium     Europe     2007    79.4  10392226    33693.
# … with 132 more rows

We still have more than one observation per year in our TB dataset. Lets use summarise to collapse to one value per country.

tb07 <- who_dat %>% 
  filter(year == 2007) %>% 
  group_by(country) %>% 
  summarise(tb_cases = sum(value)) %>% 
  ungroup()

tb07

# A tibble: 182 × 2
   country             tb_cases
   <chr>                  <int>
 1 Afghanistan             1042
 2 Albania                   19
 3 Algeria                 1483
 4 Angola                  3308
 5 Antigua and Barbuda        0
 6 Argentina                733
 7 Armenia                   82
 8 Australia                 33
 9 Austria                   13
10 Bahamas                    3
# … with 172 more rows

Now we can join the 2 datasets together…

data07 <- tb07 %>% 
  left_join(pop07)

data07

# A tibble: 182 × 7
   country             tb_cases continent  year lifeExp      pop gdpPercap
   <chr>                  <int> <fct>     <int>   <dbl>    <int>     <dbl>
 1 Afghanistan             1042 Asia       2007    43.8 31889923      975.
 2 Albania                   19 Europe     2007    76.4  3600523     5937.
 3 Algeria                 1483 Africa     2007    72.3 33333216     6223.
 4 Angola                  3308 Africa     2007    42.7 12420476     4797.
 5 Antigua and Barbuda        0 <NA>         NA    NA         NA       NA 
 6 Argentina                733 Americas   2007    75.3 40301927    12779.
 7 Armenia                   82 <NA>         NA    NA         NA       NA 
 8 Australia                 33 Oceania    2007    81.2 20434176    34435.
 9 Austria                   13 Europe     2007    79.8  8199783    36126.
10 Bahamas                    3 <NA>         NA    NA         NA       NA 
# … with 172 more rows

…and calculate the TB incidence per 100’000 persons.

data07 <- data07 %>% 
  select(-lifeExp, -gdpPercap) %>% # We don't need those 2 variables
  mutate(tb_incidence = tb_cases / pop * 100000) %>% 
  filter(!is.na(tb_incidence))

data07

# A tibble: 113 × 6
   country     tb_cases continent  year       pop tb_incidence
   <chr>          <int> <fct>     <int>     <int>        <dbl>
 1 Afghanistan     1042 Asia       2007  31889923        3.27 
 2 Albania           19 Europe     2007   3600523        0.528
 3 Algeria         1483 Africa     2007  33333216        4.45 
 4 Angola          3308 Africa     2007  12420476       26.6  
 5 Argentina        733 Americas   2007  40301927        1.82 
 6 Australia         33 Oceania    2007  20434176        0.161
 7 Austria           13 Europe     2007   8199783        0.159
 8 Bahrain            8 Asia       2007    708573        1.13 
 9 Bangladesh     10733 Asia       2007 150448339        7.13 
10 Belgium           25 Europe     2007  10392226        0.241
# … with 103 more rows
…
Examples:

# A tibble: 234 × 6
   manufacturer model      displ  year   cyl trans     
   <chr>        <chr>      <dbl> <int> <int> <chr>     
 1 audi         a4           1.8  1999     4 auto(l5)  
 2 audi         a4           1.8  1999     4 manual(m5)
 3 audi         a4           2    2008     4 manual(m6)
 4 audi         a4           2    2008     4 auto(av)  
 5 audi         a4           2.8  1999     6 auto(l5)  
 6 audi         a4           2.8  1999     6 manual(m5)
 7 audi         a4           3.1  2008     6 auto(av)  
 8 audi         a4 quattro   1.8  1999     4 manual(m5)
 9 audi         a4 quattro   1.8  1999     4 auto(l5)  
10 audi         a4 quattro   2    2008     4 manual(m6)
# … with 224 more rows

Tidy 👍

Examples:

# A tibble: 344 × 4
   species island    bill_length_mm bill_depth_mm
   <chr>   <chr>              <dbl>         <dbl>
 1 Adelie  Torgersen           39.1          18.7
 2 Adelie  Torgersen           39.5          17.4
 3 Adelie  Torgersen           40.3          18  
 4 Adelie  Torgersen           NA            NA  
 5 Adelie  Torgersen           36.7          19.3
 6 Adelie  Torgersen           39.3          20.6
 7 Adelie  Torgersen           38.9          17.8
 8 Adelie  Torgersen           39.2          19.6
 9 Adelie  Torgersen           34.1          18.1
10 Adelie  Torgersen           42            20.2
# … with 334 more rows

Tidy 👍

Examples:

# A tibble: 3,173 × 4
   country      year new_sp_m014 new_sp_m1524
   <chr>       <int>       <int>        <int>
 1 Afghanistan  1997           0           10
 2 Afghanistan  1998          30          129
 3 Afghanistan  1999           8           55
 4 Afghanistan  2000          52          228
 5 Afghanistan  2001         129          379
 6 Afghanistan  2002          90          476
 7 Afghanistan  2003         127          511
 8 Afghanistan  2004         139          537
 9 Afghanistan  2005         151          606
10 Afghanistan  2006         193          837
# … with 3,163 more rows

Not tidy 👎

Examples:

# A tibble: 6,382 × 8
   country     iso2  iso3   year diag         gender agegroup  value
   <chr>       <chr> <chr> <int> <chr>        <chr>  <chr>     <int>
 1 Afghanistan AF    AFG    1997 sputum smear m      0-14 yrs      0
 2 Afghanistan AF    AFG    1997 sputum smear m      15-24 yrs    10
 3 Afghanistan AF    AFG    1998 sputum smear m      0-14 yrs     30
 4 Afghanistan AF    AFG    1998 sputum smear m      15-24 yrs   129
 5 Afghanistan AF    AFG    1999 sputum smear m      0-14 yrs      8
 6 Afghanistan AF    AFG    1999 sputum smear m      15-24 yrs    55
 7 Afghanistan AF    AFG    2000 sputum smear m      0-14 yrs     52
 8 Afghanistan AF    AFG    2000 sputum smear m      15-24 yrs   228
 9 Afghanistan AF    AFG    2001 sputum smear m      0-14 yrs    129
10 Afghanistan AF    AFG    2001 sputum smear m      15-24 yrs   379
# … with 6,372 more rows

Not tidy 👎

Examples:

# A tibble: 11,664 × 7
   country     iso2  iso3   year diag         gender agegroup 
   <chr>       <chr> <chr> <int> <chr>        <chr>  <chr>    
 1 Afghanistan AF    AFG    1997 sputum smear m      15-24 yrs
 2 Afghanistan AF    AFG    1997 sputum smear m      15-24 yrs
 3 Afghanistan AF    AFG    1997 sputum smear m      15-24 yrs
 4 Afghanistan AF    AFG    1997 sputum smear m      15-24 yrs
 5 Afghanistan AF    AFG    1997 sputum smear m      15-24 yrs
 6 Afghanistan AF    AFG    1997 sputum smear m      15-24 yrs
 7 Afghanistan AF    AFG    1997 sputum smear m      15-24 yrs
 8 Afghanistan AF    AFG    1997 sputum smear m      15-24 yrs
 9 Afghanistan AF    AFG    1997 sputum smear m      15-24 yrs
10 Afghanistan AF    AFG    1997 sputum smear m      15-24 yrs
# … with 11,654 more rows
…
